<?xml version="1.0" encoding="UTF-8" standalone="no"?>
<svg
   xmlns:dc="http://purl.org/dc/elements/1.1/"
   xmlns:cc="http://creativecommons.org/ns#"
   xmlns:rdf="http://www.w3.org/1999/02/22-rdf-syntax-ns#"
   xmlns:svg="http://www.w3.org/2000/svg"
   xmlns="http://www.w3.org/2000/svg"
   viewBox="0 0 74.666664 13.333333"
   height="13.333333"
   width="74.666664"
   xml:space="preserve"
   id="svg2"
   version="1.1"><metadata
     id="metadata8"><rdf:RDF><cc:Work
         rdf:about=""><dc:format>image/svg+xml</dc:format><dc:type
           rdf:resource="http://purl.org/dc/dcmitype/StillImage" /></cc:Work></rdf:RDF></metadata><defs
     id="defs6" /><g
     transform="matrix(1.3333333,0,0,-1.3333333,0,13.333333)"
     id="g10"><g
       transform="scale(0.1)"
       id="g12"><path
         id="path14"
         style="fill:#8ec63f;fill-opacity:1;fill-rule:nonzero;stroke:none"
         d="m 166.566,20.9609 v 20.2539 h 23.875 v 11.5508 h -23.875 v 8.0078 H 190.98 V 72.3242 H 153.316 V 20.9609 h 13.25" /><path
         id="path16"
         style="fill:#8ec63f;fill-opacity:1;fill-rule:nonzero;stroke:none"
         d="m 215.695,20.0391 c 5.7,0 11.864,1.6172 15.559,4.9297 l -5.008,7.3906 c -2.078,-2.0039 -6.621,-3.1563 -9.238,-3.1563 -5.395,0 -8.625,3.1563 -9.32,6.6211 h 26.492 v 2.543 c 0,12.6289 -8.008,20.7148 -19.02,20.7148 -11.629,0 -19.793,-8.7031 -19.793,-19.4843 0,-12.0899 8.856,-19.5586 20.328,-19.5586 z m 7.164,23.4882 h -15.324 c 0.461,2.6954 2.465,6.3907 7.625,6.3907 5.465,0 7.391,-3.7735 7.699,-6.3907" /><path
         id="path18"
         style="fill:#8ec63f;fill-opacity:1;fill-rule:nonzero;stroke:none"
         d="m 257.898,20.0391 c 5.7,0 11.86,1.6172 15.559,4.9297 l -5.008,7.3906 c -2.078,-2.0039 -6.621,-3.1563 -9.242,-3.1563 -5.391,0 -8.625,3.1563 -9.316,6.6211 h 26.492 v 2.543 c 0,12.6289 -8.008,20.7148 -19.024,20.7148 -11.625,0 -19.789,-8.7031 -19.789,-19.4843 0,-12.0899 8.856,-19.5586 20.328,-19.5586 z m 7.165,23.4882 h -15.329 c 0.465,2.6954 2.469,6.3907 7.625,6.3907 5.469,0 7.395,-3.7735 7.704,-6.3907" /><path
         id="path20"
         style="fill:#8ec63f;fill-opacity:1;fill-rule:nonzero;stroke:none"
         d="m 294.094,20.9609 v 51.3633 h -11.86 V 20.9609 h 11.86" /><path
         id="path22"
         style="fill:#8ec63f;fill-opacity:1;fill-rule:nonzero;stroke:none"
         d="m 316.813,20.0391 c 4.386,0 7.316,1.0742 8.777,2.4609 l -2.309,8.9375 c -0.386,-0.4648 -1.695,-0.9258 -3.004,-0.9258 -2.078,0 -3.312,1.6172 -3.312,3.7735 v 13.5507 h 7.551 v 10.3243 h -7.551 v 10.164 H 305.184 V 58.1602 H 299.02 V 47.8359 h 6.164 V 30.9727 c 0,-7.1602 4.082,-10.9336 11.629,-10.9336" /><path
         id="path24"
         style="fill:#8ec63f;fill-opacity:1;fill-rule:nonzero;stroke:none"
         d="m 342.301,20.9609 v 23.7188 c 1.539,2.082 5.621,3.3906 8.703,3.3906 1.234,0 2.234,-0.1562 2.926,-0.3086 v 11.3985 c -4.465,0 -9.164,-2.543 -11.629,-5.5469 v 4.5469 h -11.86 V 20.9609 h 11.86" /><path
         id="path26"
         style="fill:#8ec63f;fill-opacity:1;fill-rule:nonzero;stroke:none"
         d="m 365.254,61.4688 c 3.773,0 6.777,3.082 6.777,6.8554 0,3.7735 -3.004,6.7735 -6.777,6.7735 -3.777,0 -6.777,-3 -6.777,-6.7735 0,-3.7734 3,-6.8554 6.777,-6.8554 z m 5.93,-40.5079 V 58.1602 H 359.32 V 20.9609 h 11.864" /><path
         id="path28"
         style="fill:#8ec63f;fill-opacity:1;fill-rule:nonzero;stroke:none"
         d="m 402.68,20.0391 c 9.316,0 16.324,6.9297 16.324,19.5586 0,12.5546 -7.008,19.4843 -16.324,19.4843 -4.235,0 -8.09,-1.6953 -11.012,-5.2382 v 4.3164 H 379.805 V 6.79297 h 11.863 V 25.3516 c 3.078,-3.6953 6.852,-5.3125 11.012,-5.3125 z m -3.93,10.4726 c -2.539,0 -5.621,1.4649 -7.082,3.3867 v 11.3204 c 1.461,2.0039 4.543,3.3906 7.082,3.3906 4.621,0 8.164,-3.4688 8.164,-9.0117 0,-5.6211 -3.543,-9.086 -8.164,-9.086" /><path
         id="path30"
         style="fill:#8ec63f;fill-opacity:1;fill-rule:nonzero;stroke:none"
         d="m 431.016,20.0391 c 3.929,0 7.242,3.3086 7.242,7.2382 0,3.9258 -3.313,7.2383 -7.242,7.2383 -3.926,0 -7.235,-3.3125 -7.235,-7.2383 0,-3.9296 3.309,-7.2382 7.235,-7.2382" /><path
         id="path32"
         style="fill:#8ec63f;fill-opacity:1;fill-rule:nonzero;stroke:none"
         d="m 463.441,20.0391 c 12.782,0 20.329,9.0859 20.329,19.5586 0,10.4726 -7.547,19.4843 -20.329,19.4843 -12.628,0 -20.253,-9.0117 -20.253,-19.4843 0,-10.4727 7.625,-19.5586 20.253,-19.5586 z m 0,10.4726 c -5.16,0 -8.007,4.0821 -8.007,9.086 0,4.9296 2.847,9.0117 8.007,9.0117 5.235,0 8.161,-4.0821 8.161,-9.0117 0,-5.0039 -2.926,-9.086 -8.161,-9.086" /><path
         id="path34"
         style="fill:#8ec63f;fill-opacity:1;fill-rule:nonzero;stroke:none"
         d="m 501.867,20.9609 v 23.7188 c 1.539,2.082 5.621,3.3906 8.703,3.3906 1.231,0 2.231,-0.1562 2.922,-0.3086 v 11.3985 c -4.465,0 -9.164,-2.543 -11.625,-5.5469 v 4.5469 H 490.008 V 20.9609 h 11.859" /><path
         id="path36"
         style="fill:#8ec63f;fill-opacity:1;fill-rule:nonzero;stroke:none"
         d="m 534.363,5.86719 c 9.242,0 21.258,3.23437 21.258,18.40621 v 33.8868 h -11.785 v -4.3946 c -3.004,3.6992 -6.852,5.3164 -11.012,5.3164 -9.32,0 -16.402,-6.4687 -16.402,-18.7148 0,-12.5508 7.316,-18.7891 16.402,-18.7891 4.239,0 7.934,1.7696 11.012,5.3907 v -2.8477 c 0,-6.9336 -5.543,-8.5508 -9.473,-8.5508 -4.308,0 -8.468,1.2344 -11.32,4.3164 l -5.16,-8.4765 c 4.777,-3.92582 10.09,-5.54301 16.48,-5.54301 z m 2.387,26.18361 c -4.695,0 -8.16,2.8476 -8.16,8.3164 0,5.3906 3.465,8.2422 8.16,8.2422 2.465,0 5.625,-1.3086 7.086,-3.3125 v -9.9336 c -1.461,-2.0039 -4.621,-3.3125 -7.086,-3.3125" /><path
         id="path38"
         style="fill:#8ec63f;fill-opacity:1;fill-rule:evenodd;stroke:none"
         d="m 23.5664,92.2734 h 81.0816 c 9.309,0 16.93,-7.6211 16.93,-16.9336 V 29.1523 c 0,-9.3125 -7.621,-16.9335 -16.93,-16.9335 H 23.5664 c -9.3164,0 -16.93749,7.621 -16.93749,16.9335 v 46.1875 c 0,9.3125 7.62109,16.9336 16.93749,16.9336 z M 82.8945,73.3477 63.3125,31.1484 57.9648,48.4141 40.6992,53.7617 82.8945,73.3477" /></g></g></svg>